<svg xmlns="http://www.w3.org/2000/svg" width="50" height="50" viewBox="0 0 50 50">
  <g id="facebookicon" transform="translate(-621 -640)">
    <g id="Group_14998" data-name="Group 14998" transform="translate(621 640)">
      <rect id="Rectangle_2369" data-name="Rectangle 2369" width="50" height="50" fill="none"/>
      <path id="Path_741" data-name="Path 741" d="M535.041,161.872H512.652a1.386,1.386,0,0,0-1.2.693l-11.194,19.389a1.386,1.386,0,0,0,0,1.385l11.194,19.388a1.385,1.385,0,0,0,1.2.693h22.389a1.383,1.383,0,0,0,1.2-.693l11.194-19.388a1.386,1.386,0,0,0,0-1.385L536.24,162.566a1.385,1.385,0,0,0-1.2-.693" transform="translate(-498.871 -157.647)" fill="#f2334e"/>
    </g>
    <path id="facebook-logo_5d8d8d62" d="M.4,13.323H3.111V24.61a.406.406,0,0,0,.4.4h4.6a.4.4,0,0,0,.4-.4V13.373h3.118a.4.4,0,0,0,.4-.358l.475-4.151a.4.4,0,0,0-.4-.45H8.521v-2.6c0-.792.417-1.184,1.234-1.184h2.351a.4.4,0,0,0,.4-.408V.418a.4.4,0,0,0-.4-.408H8.721a6.169,6.169,0,0,0-4.06,1.542A4.326,4.326,0,0,0,3.244,5.378V8.421H.41a.4.4,0,0,0-.4.4v4.1a.4.4,0,0,0,.4.408Z" transform="translate(639.74 652.49)" fill="#fff" fill-rule="evenodd"/>
  </g>
</svg>
