<svg xmlns="http://www.w3.org/2000/svg" xmlns:xlink="http://www.w3.org/1999/xlink" width="678.569" height="360.805" viewBox="0 0 678.569 360.805">
  <defs>
    <clipPath id="clip-path">
      <path id="Path_5476" data-name="Path 5476" d="M71.036,12.21h467.29a7.659,7.659,0,0,1,7.636,7.636V278.695a7.659,7.659,0,0,1-7.636,7.636H71.036a7.655,7.655,0,0,1-7.636-7.636V19.846a7.655,7.655,0,0,1,7.636-7.636Z" transform="translate(-63.4 -12.21)" clip-rule="evenodd"/>
    </clipPath>
  </defs>
  <g id="topilustrasi" transform="translate(-700.203 -149)">
    <g id="Group_15232" data-name="Group 15232" transform="translate(797.325 222.744) rotate(28)">
      <path id="Path_5504" data-name="Path 5504" d="M211.731,173.815c11.3-17.68,11.983-41.287,5.917-61.68s-18.126-38.122-30.988-54.546c-4.345-5.547-8.958-11.125-14.991-14.419s-13.861-3.84-19.284.5c-12.5,10-2.316,33.019-10.692,47.079-8.834,1.106-16.822-6.5-20.48-15.139s-4.238-18.345-6.245-27.58S108.882,29.208,100.961,24.9s-19.946.039-20.869,9.468c-.586,6.007,2.944,13.2-1.042,17.491-3.095,3.335-8.742,1.768-11.634-1.766s-3.9-8.325-5.345-12.758C56.713,20.846,43.876,7.327,28.343,1.819,18.93-1.519,6.456-.792,1.708,8.49c-5.568,10.888,3.552,23.438,11.969,32Q31.249,58.364,48.821,76.241C54.109,81.619,59.163,91.694,53,95.88c-4.957,3.365-11.85-1.979-17.233.53-5.406,2.522-5.337,11.093-2.225,16.435,6.329,10.859,19.569,14.224,31.509,15.419s24.808,1.488,34.445,9.1,12.35,26.055,1.79,32.117c-4.12,2.367-9.049,2.222-13.64,3.188s-9.551,3.913-10.166,8.859c-.705,5.683,4.575,10.005,9.36,12.622,41.931,22.913,90.621,14.133,124.892-20.336" transform="translate(0 0)" fill="#ff5a71"/>
      <path id="Path_5505" data-name="Path 5505" d="M169.4,138.9,0,0" transform="translate(30.367 38.348)" fill="#333" stroke="#333" stroke-miterlimit="10" stroke-width="0.5"/>
      <path id="Path_5506" data-name="Path 5506" d="M53.015,0S26.124,8.257,0,7.632" transform="translate(59.666 105.841)" fill="none" stroke="#333" stroke-miterlimit="10" stroke-width="0.5"/>
      <path id="Path_5507" data-name="Path 5507" d="M0,65.088S19.57,50.79,13.038,0" transform="translate(158.516 76.743)" fill="none" stroke="#333" stroke-miterlimit="10" stroke-width="0.5"/>
      <path id="Path_5508" data-name="Path 5508" d="M0,36.195S12.429,26.553,5.918,0" transform="translate(89.927 50.514)" fill="none" stroke="#333" stroke-miterlimit="10" stroke-width="0.5"/>
      <path id="Path_5509" data-name="Path 5509" d="M64.676,0S27.019,31.767,0,21.97" transform="translate(114.663 160.498)" fill="none" stroke="#333" stroke-miterlimit="10" stroke-width="0.5"/>
    </g>
    <g id="Group_15231" data-name="Group 15231" transform="translate(737.629 374.127) rotate(2)">
      <path id="Path_5504-2" data-name="Path 5504" d="M140.394,102.462c7.494-10.422,7.946-24.338,3.923-36.36S132.3,43.63,123.77,33.948c-2.881-3.27-5.94-6.558-9.94-8.5s-9.191-2.264-12.787.293c-8.288,5.893-1.536,19.464-7.09,27.752-5.858.652-11.154-3.83-13.58-8.924s-2.81-10.814-4.141-16.258S72.2,17.218,66.945,14.677,53.72,14.7,53.108,20.259c-.389,3.541,1.952,7.782-.691,10.311-2.052,1.966-5.8,1.042-7.714-1.041s-2.589-4.907-3.544-7.521A35.252,35.252,0,0,0,18.793,1.072C12.552-.9,4.281-.467,1.132,5-2.56,11.423,3.488,18.821,9.069,23.868l23.3,21.075c3.507,3.17,6.858,9.109,2.77,11.577-3.287,1.984-7.858-1.167-11.427.313-3.584,1.487-3.539,6.539-1.476,9.688,4.2,6.4,12.976,8.385,20.893,9.089s16.45.877,22.84,5.364,8.189,15.359,1.187,18.933c-2.732,1.4-6,1.31-9.044,1.879s-6.333,2.307-6.741,5.222c-.468,3.35,3.033,5.9,6.207,7.441,27.8,13.507,60.089,8.331,82.813-11.988" transform="translate(0 0)" fill="#e9e9e9"/>
      <path id="Path_5505-2" data-name="Path 5505" d="M112.323,81.878,0,0" transform="translate(20.136 22.605)" fill="#333" stroke="#333" stroke-miterlimit="10" stroke-width="0.5"/>
      <path id="Path_5506-2" data-name="Path 5506" d="M35.153,0S17.322,4.867,0,4.5" transform="translate(39.563 62.392)" fill="none" stroke="#333" stroke-miterlimit="10" stroke-width="0.5"/>
      <path id="Path_5507-2" data-name="Path 5507" d="M0,38.368S12.977,29.94,8.646,0" transform="translate(105.109 45.239)" fill="none" stroke="#333" stroke-miterlimit="10" stroke-width="0.5"/>
      <path id="Path_5508-2" data-name="Path 5508" d="M0,21.336S8.241,15.653,3.924,0" transform="translate(59.629 29.778)" fill="none" stroke="#333" stroke-miterlimit="10" stroke-width="0.5"/>
      <path id="Path_5509-2" data-name="Path 5509" d="M42.885,0S17.916,18.726,0,12.951" transform="translate(76.031 94.612)" fill="none" stroke="#333" stroke-miterlimit="10" stroke-width="0.5"/>
    </g>
    <rect id="Rectangle_2433" data-name="Rectangle 2433" width="497.746" height="297.876" rx="14" transform="translate(881.026 149)" fill="#333"/>
    <path id="Path_5475" data-name="Path 5475" d="M71.036,12.21h467.29a7.659,7.659,0,0,1,7.636,7.636V278.695a7.659,7.659,0,0,1-7.636,7.636H71.036a7.655,7.655,0,0,1-7.636-7.636V19.846a7.655,7.655,0,0,1,7.636-7.636Z" transform="translate(824.716 143.891)" fill="#fff" fill-rule="evenodd"/>
    <g id="Group_15220" data-name="Group 15220" transform="translate(888.526 156.101)" clip-path="url(#clip-path)">
      <g id="_2197177263888" transform="translate(0 0)">
        <path id="_1" data-name="1" d="M66.837,12.21H186.954V286.33H66.837a3.449,3.449,0,0,1-3.437-3.443V15.653a3.449,3.449,0,0,1,3.437-3.443Z" transform="translate(-63.4 -12.21)" fill="#e9e9e9" fill-rule="evenodd"/>
      </g>
    </g>
    <path id="Path_5477" data-name="Path 5477" d="M71.036,12.21h467.29a7.659,7.659,0,0,1,7.636,7.636V278.695a7.659,7.659,0,0,1-7.636,7.636H71.036a7.655,7.655,0,0,1-7.636-7.636V19.846a7.655,7.655,0,0,1,7.636-7.636Z" transform="translate(825.126 143.891)" fill="none" fill-rule="evenodd"/>
    <path id="Path_5478" data-name="Path 5478" d="M401.2,503.01v23.424c0,23.436-13.986,35.381-35.375,35.381-6.432-.006-7.705,9.444,0,9.45H492.2c7.705-.006,6.432-9.456,0-9.45-21.389,0-35.381-11.945-35.381-35.381V503.01C442.963,502.917,415.061,502.917,401.2,503.01Z" transform="translate(700.795 -61.46)" fill="#333" fill-rule="evenodd"/>
    <rect id="Rectangle_2446" data-name="Rectangle 2446" width="16.202" height="16.202" rx="6.62" transform="translate(905.67 175.902)" fill="#333"/>
    <rect id="Rectangle_2447" data-name="Rectangle 2447" width="39.161" height="4.321" transform="translate(932.95 187.783)" fill="#fff"/>
    <rect id="Rectangle_2448" data-name="Rectangle 2448" width="27.548" height="4.321" transform="translate(932.95 178.06)" fill="#ccc"/>
    <rect id="Rectangle_2449" data-name="Rectangle 2449" width="74.268" height="4.321" transform="translate(905.67 222.623)" fill="#ccc"/>
    <rect id="Rectangle_2450" data-name="Rectangle 2450" width="74.268" height="4.321" transform="translate(905.67 240.715)" fill="#ccc"/>
    <rect id="Rectangle_2451" data-name="Rectangle 2451" width="74.268" height="4.321" transform="translate(905.67 276.904)" fill="#ccc"/>
    <rect id="Rectangle_2452" data-name="Rectangle 2452" width="74.268" height="4.321" transform="translate(905.67 258.812)" fill="#ccc"/>
    <g id="_2197177281360" transform="translate(851.657 289.43)">
      <g id="Group_15224" data-name="Group 15224">
        <rect id="Rectangle_2453" data-name="Rectangle 2453" width="124.775" height="220.374" rx="11" fill="#333"/>
        <rect id="Rectangle_2454" data-name="Rectangle 2454" width="114.825" height="206.877" rx="8" transform="translate(4.972 6.548)" fill="#fff"/>
        <path id="Path_5487" data-name="Path 5487" d="M43.887,247.052c-3.623.006-4.338-5.147,0-5.152h71.221c4.344.006,3.623,5.158,0,5.152-15.963,0-7.537,10.543-13.37,10.543H57.257c-5.833,0,2.6-10.543-13.37-10.543Z" transform="translate(-17.113 -241.656)" fill="#333" fill-rule="evenodd"/>
        <g id="Group_15233" data-name="Group 15233" transform="translate(99.587 24.924)">
          <line id="Line_11" data-name="Line 11" x2="5.377" fill="none" stroke="#333" stroke-linecap="round" stroke-width="0.6"/>
          <line id="Line_12" data-name="Line 12" x2="5.377" transform="translate(0 2.173)" fill="none" stroke="#333" stroke-linecap="round" stroke-width="0.6"/>
          <line id="Line_13" data-name="Line 13" x2="5.377" transform="translate(0 4.345)" fill="none" stroke="#333" stroke-linecap="round" stroke-width="0.6"/>
        </g>
      </g>
      <g id="Group_15225" data-name="Group 15225" transform="translate(42.127 8.613)">
        <circle id="Ellipse_12" data-name="Ellipse 12" cx="2.501" cy="2.501" r="2.501" fill="#fff"/>
        <circle id="Ellipse_13" data-name="Ellipse 13" cx="1.686" cy="1.686" r="1.686" transform="translate(7.566 0.814)" fill="#e9e9e9"/>
        <rect id="Rectangle_2455" data-name="Rectangle 2455" width="25.791" height="1.756" transform="translate(14.725 1.622)" fill="#e9e9e9"/>
      </g>
    </g>
    <g id="_2197177282768" transform="translate(867.632 336.907)">
      <rect id="Rectangle_2456" data-name="Rectangle 2456" width="38.37" height="38.37" rx="4.83" fill="#f2334e"/>
      <rect id="Rectangle_2457" data-name="Rectangle 2457" width="16.522" height="2.309" rx="1.154" transform="translate(0 42.348)" fill="#ccc"/>
      <rect id="Rectangle_2458" data-name="Rectangle 2458" width="32.2" height="2.309" rx="1.154" transform="translate(0 46.151)" fill="#e9e9e9"/>
      <path id="Path_5488" data-name="Path 5488" d="M50.99,353.785h2.041c-.634-.634-.052-1.57.384-2.315" transform="translate(-37.312 -334.983)" fill="none" stroke="#fff" stroke-linecap="round" stroke-linejoin="round" stroke-miterlimit="10" stroke-width="0.8"/>
      <line id="Line_6" data-name="Line 6" x2="4.623" transform="translate(24.965 13.405)" fill="none" stroke="#fff" stroke-linecap="round" stroke-linejoin="round" stroke-miterlimit="10" stroke-width="0.8"/>
      <path id="Path_5489" data-name="Path 5489" d="M65.1,343.52h2.309a.773.773,0,0,1,.773.773v1.541a.768.768,0,0,1-.773.768H65.1" transform="translate(-43.217 -331.657)" fill="none" stroke="#fff" stroke-linecap="round" stroke-linejoin="round" stroke-miterlimit="10" stroke-width="0.8"/>
      <line id="Line_7" data-name="Line 7" y1="6.938" x2="1.541" transform="translate(9.555 16.487)" fill="none" stroke="#fff" stroke-linecap="round" stroke-linejoin="round" stroke-miterlimit="10" stroke-width="0.8"/>
      <line id="Line_8" data-name="Line 8" x2="3.082" transform="translate(11.096 13.405)" fill="none" stroke="#fff" stroke-linecap="round" stroke-linejoin="round" stroke-miterlimit="10" stroke-width="0.8"/>
      <line id="Line_9" data-name="Line 9" x2="3.082" transform="translate(11.096 11.863)" fill="none" stroke="#fff" stroke-linecap="round" stroke-linejoin="round" stroke-miterlimit="10" stroke-width="0.8"/>
      <path id="Path_5490" data-name="Path 5490" d="M43.9,358.408v3.856a.767.767,0,0,0,.768.768h6.164a.772.772,0,0,0,.773-.768v-3.082a.777.777,0,0,0-.773-.773H48.279a1.013,1.013,0,0,1-1.012-1.012,1.079,1.079,0,0,1,.041-.279l1.215-5.647" transform="translate(-34.345 -334.983)" fill="none" stroke="#fff" stroke-linecap="round" stroke-linejoin="round" stroke-miterlimit="10" stroke-width="0.8"/>
      <line id="Line_10" data-name="Line 10" x2="4.623" transform="translate(9.555 23.424)" fill="none" stroke="#fff" stroke-linecap="round" stroke-linejoin="round" stroke-miterlimit="10" stroke-width="0.8"/>
      <path id="Path_5491" data-name="Path 5491" d="M54.131,347.034a1.54,1.54,0,0,0,1.541-1.541v-3.082a1.544,1.544,0,0,0-1.541-1.541H44.111a1.544,1.544,0,0,0-1.541,1.541v3.082a1.54,1.54,0,0,0,1.541,1.541h10.02Z" transform="translate(-33.789 -330.548)" fill="none" stroke="#fff" stroke-linecap="round" stroke-linejoin="round" stroke-miterlimit="10" stroke-width="0.8"/>
    </g>
    <g id="_2197177222640" transform="translate(921.837 336.907)">
      <rect id="Rectangle_2459" data-name="Rectangle 2459" width="38.37" height="38.37" rx="4.83" fill="#f2334e"/>
      <rect id="Rectangle_2460" data-name="Rectangle 2460" width="16.522" height="2.309" rx="1.154" transform="translate(0 42.348)" fill="#ccc"/>
      <rect id="Rectangle_2461" data-name="Rectangle 2461" width="32.2" height="2.309" rx="1.154" transform="translate(0 46.151)" fill="#e9e9e9"/>
      <g id="Group_15227" data-name="Group 15227" transform="translate(9.413 8.306)">
        <g id="Group_15226" data-name="Group 15226">
          <path id="Path_5492" data-name="Path 5492" d="M156.379,346.531l-2.681-5.862a2.169,2.169,0,0,0-1.146-1.18.173.173,0,0,0-.047-.023l-1.873-.669-.012-.413a.432.432,0,0,0-.244-.372l-1.215-.57a.42.42,0,0,0-.355,0c-.017.012-.035.017-.052.029s-.023.006-.029.012a4.68,4.68,0,0,1-4.164,0c-.012-.006-.023-.006-.035-.012s-.035-.017-.052-.029a.42.42,0,0,0-.355,0l-1.215.57a.432.432,0,0,0-.244.372l-.012.413-1.873.669a.331.331,0,0,0-.047.023,2.169,2.169,0,0,0-1.146,1.18l-2.681,5.862a.433.433,0,0,0,.163.541l3.2,2v5.478l-.419,2.849a.428.428,0,0,0,.3.471l4.356,1.274a.374.374,0,0,0,.116.017.414.414,0,0,0,.186-.041l.9-.425a.432.432,0,0,0,.244-.384V357.04h1.4v1.274a.427.427,0,0,0,.238.384l.9.425a.411.411,0,0,0,.3.023l4.356-1.274a.428.428,0,0,0,.3-.471l-.419-2.849v-5.478l3.2-2a.433.433,0,0,0,.163-.541Zm-6.507-4.03-1.588-.465.977-3.606.518.238Zm-6.368-3.832.518-.238.977,3.606-1.588.465Zm2.442,17.522v-3.96a.427.427,0,0,0-.855,0v5.815l-.506.238-3.844-1.122.372-2.518c0-.023.006-.041.006-.064v-9.148a.427.427,0,0,0-.855,0v2.634l-2.431-1.518,2.524-5.525a1.357,1.357,0,0,1,.733-.768l1.541-.552-.087,3.355a.427.427,0,0,0,.547.419l2-.587v5.519a.427.427,0,0,0,.855,0v-6.083a.365.365,0,0,0-.017-.11l-.994-3.664a5.579,5.579,0,0,0,3.414,0l-.994,3.664a.358.358,0,0,0-.012.11v13.864Zm7.072-8.124v-2.634a.425.425,0,0,0-.849,0v9.212l.372,2.518-3.844,1.122-.506-.238V342.891l2,.587a.434.434,0,0,0,.378-.07.441.441,0,0,0,.169-.349l-.081-3.355,1.535.552a1.357,1.357,0,0,1,.733.768l2.524,5.525Z" transform="translate(-136.866 -337.402)" fill="#fff" fill-rule="evenodd"/>
          <path id="Path_5493" data-name="Path 5493" d="M151.44,358.88h-.006a.427.427,0,1,0,.006,0Z" transform="translate(-142.785 -346.39)" fill="#fff" fill-rule="evenodd"/>
        </g>
      </g>
    </g>
    <g id="_2197024823344" transform="translate(867.632 397.975)">
      <rect id="Rectangle_2462" data-name="Rectangle 2462" width="38.37" height="38.37" rx="4.83" fill="#f2334e"/>
      <rect id="Rectangle_2463" data-name="Rectangle 2463" width="16.522" height="2.309" rx="1.154" transform="translate(0 42.348)" fill="#ccc"/>
      <rect id="Rectangle_2464" data-name="Rectangle 2464" width="32.2" height="2.309" rx="1.154" transform="translate(0 46.151)" fill="#e9e9e9"/>
      <g id="Group_15228" data-name="Group 15228" transform="translate(7.765 7.766)">
        <path id="Path_5494" data-name="Path 5494" d="M46.986,468.446a.449.449,0,0,0,0,.634l2.838,2.838a.442.442,0,0,0,.628,0,.449.449,0,0,0,0-.634l-2.838-2.838A.442.442,0,0,0,46.986,468.446Z" transform="translate(-43.346 -452.712)" fill="#fff" fill-rule="evenodd"/>
        <path id="Path_5495" data-name="Path 5495" d="M52.649,449.972c-1.576-.907-3.617-1.111-4.879.151a3,3,0,0,0-.657,1.023,2.213,2.213,0,0,1-1.948,1.512,4.371,4.371,0,0,0-3.071,1.25c-2.187,2.187-1.349,5.908.948,8.2,2.4,2.4,6.089,3.053,8.2.942a4.411,4.411,0,0,0,1.25-3.071,1.853,1.853,0,0,1,.2-.8.448.448,0,0,0-.209-.593.439.439,0,0,0-.593.2,2.82,2.82,0,0,0-.291,1.169,3.51,3.51,0,0,1-.989,2.46c-1.838,1.838-5.03.965-6.938-.948-2.175-2.169-2.6-5.286-.948-6.938a3.524,3.524,0,0,1,2.466-.989,3.1,3.1,0,0,0,2.762-2.088,1.977,1.977,0,0,1,.454-.709,3.094,3.094,0,0,1,3.588-.122l-2.559,2.565a2.43,2.43,0,0,0-1.663.715,2.453,2.453,0,1,0,4.187,1.8l2.559-2.559a3.59,3.59,0,0,1,.314,2.948.437.437,0,0,0,.233.582.449.449,0,0,0,.587-.238,4.509,4.509,0,0,0-.477-3.949l4.082-4.082.733-.564.547.547a.449.449,0,0,0,.634,0,.442.442,0,0,0,0-.628L60.7,447.3l1.419-1.1.314.314a.442.442,0,0,0,.628,0,.449.449,0,0,0,0-.634l-.233-.233.663-.518a.448.448,0,0,0,.047-.669l-2.844-2.838a.441.441,0,0,0-.663.041l-.518.669-.238-.238a.442.442,0,0,0-.628,0,.449.449,0,0,0,0,.634l.314.314-1.1,1.419-.471-.471a.444.444,0,1,0-.628.628l.547.552-.57.733Zm5.682-1.89c-.192.186-5.466,5.466-6.577,6.577a2.457,2.457,0,0,0-.512-.75,2.493,2.493,0,0,0-.75-.512c1.082-1.082,6.484-6.49,6.577-6.577Zm-7.723,8.665a1.561,1.561,0,1,1,0-2.21,1.555,1.555,0,0,1,0,2.21ZM60.419,442.6l2.128,2.123c-.413.32-2.925,2.274-3.547,2.762l-1.338-1.338c.861-1.1,1.878-2.413,2.756-3.547Z" transform="translate(-40.822 -441.485)" fill="#fff" fill-rule="evenodd"/>
        <circle id="Ellipse_14" data-name="Ellipse 14" cx="0.448" cy="0.448" r="0.448" transform="translate(12.49 15.699)" fill="#fff"/>
      </g>
    </g>
    <g id="_2197024822128" transform="translate(921.837 397.975)">
      <rect id="Rectangle_2465" data-name="Rectangle 2465" width="38.37" height="38.37" rx="4.83" fill="#f2334e"/>
      <rect id="Rectangle_2466" data-name="Rectangle 2466" width="16.522" height="2.309" rx="1.154" transform="translate(0 42.348)" fill="#ccc"/>
      <rect id="Rectangle_2467" data-name="Rectangle 2467" width="32.2" height="2.309" rx="1.154" transform="translate(0 46.151)" fill="#e9e9e9"/>
      <g id="Page-1_4" transform="translate(9.688 9.543)">
        <g id="_023---Bag-and-Shoe-Shopping_5">
          <path id="Shape_6" d="M137.619,448.349a.648.648,0,0,0-.279.529c.006,2.559.3,8.514,2.9,8.514h6.537a.315.315,0,0,0,.32-.32.319.319,0,0,0-.32-.32h-6.537c-1.652,0-2.245-4.245-2.256-7.868a18.119,18.119,0,0,0,4.827,1.035v2.658a1.286,1.286,0,0,0,1.285,1.285h1.285a1.286,1.286,0,0,0,1.285-1.285v-2.658a17.593,17.593,0,0,0,4.827-1.041c-.006.488-.017,1.233-.07,2.076a.32.32,0,0,0,.64.041c.058-.861.07-1.617.07-2.117a.648.648,0,0,0-.279-.529.633.633,0,0,0-.593-.064,14.5,14.5,0,0,1-2.256.651c-.6-2.605-2.32-4.4-4.263-4.4s-3.664,1.791-4.268,4.4a14.449,14.449,0,0,1-2.251-.651.646.646,0,0,0-.6.064h0Zm7.118-3.164c.7,0,1.559,1.529,1.838,4.1-.57.047-1.186.076-1.838.076s-1.268-.029-1.838-.076C143.173,446.715,144.028,445.185,144.737,445.185Zm1.285,7.391a.643.643,0,0,1-.645.64h-1.285a.638.638,0,0,1-.64-.64v-2.611c.407.023.837.041,1.285.041s.872-.017,1.285-.041Zm2.349-3.524c-.361.064-.744.122-1.157.169a9.467,9.467,0,0,0-1.018-3.594A5.428,5.428,0,0,1,148.372,449.053Zm-5.1-3.425a9.573,9.573,0,0,0-1.018,3.594c-.407-.046-.8-.1-1.151-.169A5.423,5.423,0,0,1,143.272,445.627Z" transform="translate(-137.34 -444.54)" fill="#fff" stroke="#fff" stroke-miterlimit="2.613" stroke-width="0.53" fill-rule="evenodd"/>
          <path id="Shape_7" d="M142.622,462.537h-.849a2.688,2.688,0,0,1-.407-.867.324.324,0,0,0-.552-.128.33.33,0,0,0-.058.326c.361,1.1.68,1.244.785,1.291a.313.313,0,0,0,.128.023h.954a.319.319,0,0,0,.32-.32.315.315,0,0,0-.32-.32Z" transform="translate(-138.761 -451.609)" fill="#fff" stroke="#fff" stroke-miterlimit="2.613" stroke-width="0.53" fill-rule="evenodd"/>
          <path id="Shape_8" d="M148.95,457.02a.319.319,0,0,0,.32.32h.646a.32.32,0,1,0,0-.64h-.646a.319.319,0,0,0-.32.32Z" transform="translate(-142.198 -449.629)" fill="#fff" stroke="#fff" stroke-miterlimit="2.613" stroke-width="0.53" fill-rule="evenodd"/>
          <path id="Shape_9" d="M155.217,454.534a38.142,38.142,0,0,0-6.35,7.438c-.233.326-.448.64-.651.93a2.377,2.377,0,0,1-3.408.564c-.163-.116-.448-.186-1.3.186a5.26,5.26,0,0,0-1.559,1.076c-.448.448-1.181,1.308-1.035,2.065a1.119,1.119,0,0,0,.733.808,5.219,5.219,0,0,0,2.006.308h4.5c1.588,0,2.053-.826,2.9-2.309.308-.547.7-1.227,1.221-2.012a8.989,8.989,0,0,1,1.628-1.82,6.458,6.458,0,0,1,.675,2.873v2.623a.648.648,0,0,0,.646.646h.965a.643.643,0,0,0,.64-.646V463.67a6.414,6.414,0,0,1,.227-1.692c.285-1.058.733-2.669.733-2.716a6.017,6.017,0,0,0-1.221-4.635A.968.968,0,0,0,155.217,454.534Zm1.215,7.275a7.17,7.17,0,0,0-.244,1.861v3.594h-.965v-2.623a7.07,7.07,0,0,0-.814-3.292,13.841,13.841,0,0,1,2.576-1.564Zm.733-2.8a12.6,12.6,0,0,0-5.426,4.222c-.535.808-.93,1.5-1.244,2.053-.826,1.442-1.134,1.983-2.344,1.983h-4.5a4.621,4.621,0,0,1-1.756-.256c-.308-.128-.337-.285-.349-.337-.064-.326.273-.907.855-1.483a4.617,4.617,0,0,1,1.361-.948,2.305,2.305,0,0,1,.7-.221,3.706,3.706,0,0,0,1.425.547,2.793,2.793,0,0,0,2.838-1.291c.209-.291.43-.6.657-.936a38.032,38.032,0,0,1,6.246-7.316.32.32,0,0,1,.448.029,5.29,5.29,0,0,1,1.082,3.954h0Z" transform="translate(-138.829 -448.626)" fill="#fff" stroke="#fff" stroke-miterlimit="2.613" stroke-width="0.53" fill-rule="evenodd"/>
          <path id="Shape_10" d="M145.13,472.386a4.156,4.156,0,0,0-1.529,1.221.33.33,0,0,0-.047.32.315.315,0,0,0,.256.192.322.322,0,0,0,.3-.116,2.883,2.883,0,0,1,.308-.343,3.22,3.22,0,0,1,.971-.68.322.322,0,0,0,.157-.419.33.33,0,0,0-.413-.174Z" transform="translate(-139.931 -456.184)" fill="#fff" stroke="#fff" stroke-miterlimit="2.613" stroke-width="0.53" fill-rule="evenodd"/>
        </g>
      </g>
    </g>
    <g id="_2196972985264" transform="translate(867.632 311.552)">
      <rect id="Rectangle_2468" data-name="Rectangle 2468" width="11.544" height="11.544" rx="4.72" fill="#333"/>
      <rect id="Rectangle_2469" data-name="Rectangle 2469" width="27.902" height="3.076" transform="translate(19.435 8.461)" fill="#e9e9e9"/>
      <rect id="Rectangle_2470" data-name="Rectangle 2470" width="19.627" height="3.076" transform="translate(19.435 1.535)" fill="#ccc"/>
    </g>
    <rect id="Rectangle_2471" data-name="Rectangle 2471" width="38.37" height="38.37" rx="4.83" transform="translate(867.632 457.931)" fill="#f2334e"/>
    <rect id="Rectangle_2472" data-name="Rectangle 2472" width="38.37" height="38.37" rx="4.83" transform="translate(921.837 457.931)" fill="#f2334e"/>
    <g id="_2197181663808" transform="translate(930.461 467.668)">
      <g id="XMLID_2367__11">
        <g id="XMLID_183__12">
          <g id="XMLID_196__13">
            <path id="XMLID_197__14" d="M159.457,567.08l-.32-.18a.4.4,0,0,0-.558.151.414.414,0,0,0,.145.564l.32.18a.375.375,0,0,0,.2.058.415.415,0,0,0,.209-.773Z" transform="translate(-145.14 -555.869)" fill="#fff" fill-rule="evenodd"/>
            <path id="XMLID_260__15" d="M162.215,562.307l-.32-.186a.413.413,0,1,0-.413.715l.32.186a.425.425,0,0,0,.2.052.407.407,0,0,0,.361-.2A.415.415,0,0,0,162.215,562.307Z" transform="translate(-146.293 -553.871)" fill="#fff" fill-rule="evenodd"/>
            <path id="XMLID_273__16" d="M156.224,564.231h-3.9a8.5,8.5,0,0,0,.058-14.754.4.4,0,0,0-.314-.041.377.377,0,0,0-.25.192l-8.083,14a.383.383,0,0,0-.041.308.388.388,0,0,0,.192.256.636.636,0,0,0,.064.035h-2.233v-2.483a4.981,4.981,0,0,0,3.745-4.821,5.047,5.047,0,0,0-.6-2.378,3.759,3.759,0,0,1-.244-2.977l.174-.523a.407.407,0,0,0-.052-.372.419.419,0,0,0-.337-.169h-1.814l1.1-1.913a.411.411,0,0,0-.151-.564.4.4,0,0,0-.558.151l-1.343,2.326h-5.071a.416.416,0,0,0-.331.169.409.409,0,0,0-.058.372l.169.5a3.816,3.816,0,0,1-.238,3.012,5.048,5.048,0,0,0-.6,2.4,5.007,5.007,0,0,0,3.733,4.786v2.908l-2.134.89a.693.693,0,0,0,.267,1.332H154.41a2.231,2.231,0,0,0,2.227-2.227A.411.411,0,0,0,156.224,564.231Zm-11.561-.558.582-1a6.446,6.446,0,0,0,2.879.68,6.79,6.79,0,0,0,.768-.047,6.48,6.48,0,0,0,3.646-1.669.413.413,0,0,0,.029-.582.408.408,0,0,0-.582-.023,5.667,5.667,0,0,1-6.327.925l1.029-1.785a.254.254,0,0,0,.041.029l.314.18a.394.394,0,0,0,.209.058.415.415,0,0,0,.2-.773l-.32-.18a.093.093,0,0,0-.041-.023l1.192-2.064a.261.261,0,0,1,.041.023l.32.186a.424.424,0,0,0,.2.052.419.419,0,0,0,.361-.2.415.415,0,0,0-.151-.564l-.32-.186-.041-.017,1.192-2.07c.012.012.029.017.041.029l.32.18a.374.374,0,0,0,.2.058.4.4,0,0,0,.355-.209.415.415,0,0,0-.145-.564l-.32-.18a.321.321,0,0,0-.041-.023l1.029-1.785a5.674,5.674,0,0,1,2.361,5.943.411.411,0,1,0,.8.18,6.518,6.518,0,0,0-2.751-6.839l.576-1a7.671,7.671,0,0,1-2.14,13.823h-4.094a7.717,7.717,0,0,1-1.425-.558ZM143.6,552.815h-1.012a1.541,1.541,0,0,0,.192-.744,1.518,1.518,0,0,0-.192-.739h1.25a4.628,4.628,0,0,0-.238,1.483Zm-3.135-.744a.744.744,0,1,1,.744.744A.745.745,0,0,1,140.465,552.071Zm-.634-.739a1.518,1.518,0,0,0-.192.739,1.541,1.541,0,0,0,.192.744h-2.454a4.789,4.789,0,0,0-.233-1.483Zm-3.5,5.618a4.177,4.177,0,0,1,.5-1.995,4.42,4.42,0,0,0,.459-1.314h2.53l-.965,1.675a.411.411,0,0,0,.151.564.375.375,0,0,0,.2.058.413.413,0,0,0,.361-.209l1.2-2.088h2.9a4.53,4.53,0,0,0,.465,1.3,4.2,4.2,0,0,1,.5,1.983,4.142,4.142,0,0,1-3.408,4.082c-.006,0-.006,0-.006.006a4.553,4.553,0,0,1-.8.058,4.175,4.175,0,0,1-4.094-4.123h0Zm3.483,8.351a.407.407,0,0,0,.25-.378v-3.042q.174.017.349.017h.07c.14,0,.273-.006.407-.012v3.036a.409.409,0,0,0,.256.378l1.774.744h-4.879Zm14.591.744H144.274a.7.7,0,0,0-.413-.506l-1.163-.483h13.05A1.4,1.4,0,0,1,154.41,566.045Z" transform="translate(-135.51 -547.973)" fill="#fff" fill-rule="evenodd"/>
            <path id="XMLID_280__17" d="M166.013,568.576a.414.414,0,0,0,.291-.122.425.425,0,0,0,.122-.291.414.414,0,0,0-.122-.291.407.407,0,0,0-.582,0,.414.414,0,0,0-.122.291.425.425,0,0,0,.122.291A.414.414,0,0,0,166.013,568.576Z" transform="translate(-148.101 -556.249)" fill="#fff" fill-rule="evenodd"/>
          </g>
        </g>
      </g>
    </g>
    <g id="Group_15236" data-name="Group 15236" transform="translate(1044.862 193.639)">
      <g id="_2197177264944">
        <rect id="Rectangle_2434" data-name="Rectangle 2434" width="70.012" height="70.012" rx="8.81" fill="#f2334e"/>
        <rect id="Rectangle_2435" data-name="Rectangle 2435" width="30.153" height="4.216" rx="2.108" transform="translate(0 77.269)" fill="#ccc"/>
        <rect id="Rectangle_2436" data-name="Rectangle 2436" width="58.753" height="4.216" rx="2.108" transform="translate(0 84.207)" fill="#e9e9e9"/>
        <path id="Path_5479" data-name="Path 5479" d="M375.15,132.716h3.716c-1.157-1.157-.087-2.867.7-4.216" transform="translate(-350.19 -98.411)" fill="none" stroke="#fff" stroke-linecap="round" stroke-linejoin="round" stroke-miterlimit="10" stroke-width="1.8"/>
        <line id="Line_1" data-name="Line 1" x2="8.438" transform="translate(45.552 24.46)" fill="none" stroke="#fff" stroke-linecap="round" stroke-linejoin="round" stroke-miterlimit="10" stroke-width="1.8"/>
        <path id="Path_5480" data-name="Path 5480" d="M400.89,113.99h4.216a1.4,1.4,0,0,1,1.407,1.407v2.809a1.4,1.4,0,0,1-1.407,1.407H400.89" transform="translate(-360.962 -92.339)" fill="none" stroke="#fff" stroke-linecap="round" stroke-linejoin="round" stroke-miterlimit="10" stroke-width="1.8"/>
        <line id="Line_2" data-name="Line 2" y1="12.654" x2="2.815" transform="translate(17.429 30.089)" fill="none" stroke="#fff" stroke-linecap="round" stroke-linejoin="round" stroke-miterlimit="10" stroke-width="1.8"/>
        <line id="Line_3" data-name="Line 3" x2="5.623" transform="translate(20.243 24.46)" fill="none" stroke="#fff" stroke-linecap="round" stroke-linejoin="round" stroke-miterlimit="10" stroke-width="1.8"/>
        <line id="Line_4" data-name="Line 4" x2="5.623" transform="translate(20.243 21.651)" fill="none" stroke="#fff" stroke-linecap="round" stroke-linejoin="round" stroke-miterlimit="10" stroke-width="1.8"/>
        <path id="Path_5481" data-name="Path 5481" d="M362.2,141.154v7.031a1.408,1.408,0,0,0,1.407,1.407h11.247a1.408,1.408,0,0,0,1.407-1.407v-5.624a1.4,1.4,0,0,0-1.407-1.407H370.2a1.845,1.845,0,0,1-1.844-1.849,1.874,1.874,0,0,1,.07-.512l2.216-10.293" transform="translate(-344.771 -98.411)" fill="none" stroke="#fff" stroke-linecap="round" stroke-linejoin="round" stroke-miterlimit="10" stroke-width="1.8"/>
        <line id="Line_5" data-name="Line 5" x2="8.438" transform="translate(17.429 42.743)" fill="none" stroke="#fff" stroke-linecap="round" stroke-linejoin="round" stroke-miterlimit="10" stroke-width="1.8"/>
        <path id="Path_5482" data-name="Path 5482" d="M380.872,120.4a2.817,2.817,0,0,0,2.815-2.815v-5.623a2.817,2.817,0,0,0-2.815-2.815H362.595a2.817,2.817,0,0,0-2.815,2.815v5.623a2.817,2.817,0,0,0,2.815,2.815Z" transform="translate(-343.759 -90.314)" fill="none" stroke="#fff" stroke-linecap="round" stroke-linejoin="round" stroke-miterlimit="10" stroke-width="1.8"/>
      </g>
      <g id="_2197177268080" transform="translate(113.249)">
        <rect id="Rectangle_2437" data-name="Rectangle 2437" width="70.012" height="70.012" rx="8.81" fill="#f2334e"/>
        <rect id="Rectangle_2438" data-name="Rectangle 2438" width="30.153" height="4.216" rx="2.108" transform="translate(0.006 77.269)" fill="#ccc"/>
        <rect id="Rectangle_2439" data-name="Rectangle 2439" width="58.753" height="4.216" rx="2.108" transform="translate(0 84.207)" fill="#e9e9e9"/>
        <g id="Group_15222" data-name="Group 15222" transform="translate(17.172 15.156)">
          <g id="Group_15221" data-name="Group 15221">
            <path id="Path_5483" data-name="Path 5483" d="M592.1,119.482l-4.891-10.7a4.009,4.009,0,0,0-2.088-2.158l-.087-.035-3.419-1.227-.017-.744a.777.777,0,0,0-.448-.686l-2.21-1.035a.765.765,0,0,0-.657,0,.632.632,0,0,0-.087.047c-.023.012-.041.017-.064.029a8.6,8.6,0,0,1-7.595,0c-.023-.012-.041-.017-.064-.029a.635.635,0,0,0-.087-.047.765.765,0,0,0-.657,0l-2.21,1.035a.788.788,0,0,0-.448.686l-.017.744-3.419,1.227c-.029.012-.058.023-.081.035a4,4,0,0,0-2.094,2.158l-4.891,10.7a.771.771,0,0,0,.3.977l5.839,3.652v10l-.768,5.2a.776.776,0,0,0,.552.855l7.944,2.326a.686.686,0,0,0,.215.029.835.835,0,0,0,.337-.07l1.634-.779a.768.768,0,0,0,.442-.7V138.65h2.547v2.326a.779.779,0,0,0,.442.7l1.64.779a.807.807,0,0,0,.331.07.686.686,0,0,0,.215-.029l7.95-2.326a.773.773,0,0,0,.547-.855l-.768-5.2v-10l5.839-3.652a.771.771,0,0,0,.3-.977h0Zm-11.869-7.362-2.9-.843,1.785-6.583.942.442.174,6.984Zm-11.619-6.984.942-.442,1.785,6.583-2.9.843.174-6.984Zm4.449,31.961V129.88a.773.773,0,1,0-1.547,0v10.6l-.93.442-7.013-2.053.675-4.594a.715.715,0,0,0,.012-.111v-16.69a.776.776,0,0,0-1.553,0v4.8l-4.437-2.774,4.6-10.084a2.471,2.471,0,0,1,1.338-1.39l2.809-1.012-.151,6.124a.793.793,0,0,0,.3.634.777.777,0,0,0,.692.128l3.658-1.064V122.9a.773.773,0,0,0,1.547,0v-11.1a.78.78,0,0,0-.023-.2l-1.814-6.682a10.152,10.152,0,0,0,6.222,0l-1.809,6.682a.779.779,0,0,0-.029.2V137.1h-2.547Zm12.9-14.818v-4.8a.776.776,0,0,0-1.553,0v16.69a.708.708,0,0,0,.012.111l.675,4.594-7.013,2.053-.925-.442V112.841l3.652,1.064a.774.774,0,0,0,.994-.762l-.151-6.124,2.809,1.012a2.471,2.471,0,0,1,1.337,1.39l4.606,10.084-4.443,2.774Z" transform="translate(-556.499 -102.823)" fill="#fff" fill-rule="evenodd"/>
            <path id="Path_5484" data-name="Path 5484" d="M583.094,142.01h0a.776.776,0,1,0,.773.779A.774.774,0,0,0,583.094,142.01Z" transform="translate(-567.304 -119.221)" fill="#fff" fill-rule="evenodd"/>
          </g>
        </g>
      </g>
      <g id="_2197177271600" transform="translate(0 111.423)">
        <rect id="Rectangle_2440" data-name="Rectangle 2440" width="70.012" height="70.012" rx="8.81" fill="#f2334e"/>
        <rect id="Rectangle_2441" data-name="Rectangle 2441" width="30.153" height="4.216" rx="2.108" transform="translate(0 77.269)" fill="#ccc"/>
        <rect id="Rectangle_2442" data-name="Rectangle 2442" width="58.753" height="4.216" rx="2.108" transform="translate(0 84.207)" fill="#e9e9e9"/>
        <g id="Group_15223" data-name="Group 15223" transform="translate(14.167 14.172)">
          <path id="Path_5485" data-name="Path 5485" d="M367.837,341.927a.811.811,0,0,0,0,1.151l5.176,5.176a.814.814,0,0,0,1.151-1.151l-5.176-5.176A.811.811,0,0,0,367.837,341.927Z" transform="translate(-361.197 -313.216)" fill="#fff" fill-rule="evenodd"/>
          <path id="Path_5486" data-name="Path 5486" d="M378.177,308.216c-2.884-1.652-6.6-2.03-8.9.273a5.222,5.222,0,0,0-1.2,1.867,4.041,4.041,0,0,1-3.559,2.762,8.018,8.018,0,0,0-5.606,2.28c-3.989,3.989-2.454,10.776,1.727,14.957,4.373,4.379,11.113,5.583,14.963,1.727a8,8,0,0,0,2.28-5.6,3.44,3.44,0,0,1,.361-1.454.813.813,0,0,0-1.46-.715,5.113,5.113,0,0,0-.529,2.128,6.4,6.4,0,0,1-1.8,4.489c-3.355,3.355-9.177,1.756-12.66-1.721-3.966-3.966-4.74-9.648-1.727-12.66a6.433,6.433,0,0,1,4.5-1.809,5.638,5.638,0,0,0,5.036-3.809,3.628,3.628,0,0,1,.832-1.291c1.448-1.448,4.047-1.506,6.548-.221l-4.67,4.67a4.474,4.474,0,1,0,4.606,4.606l4.67-4.676a6.545,6.545,0,0,1,.57,5.373.812.812,0,1,0,1.495.634,8.241,8.241,0,0,0-.861-7.205l7.444-7.444,1.332-1.041,1.006,1a.811.811,0,0,0,1.151,0,.821.821,0,0,0,0-1.151l-.861-.855,2.588-2.018.576.576a.812.812,0,0,0,1.146-1.151l-.424-.43,1.215-.942a.822.822,0,0,0,.076-1.221l-5.182-5.176a.811.811,0,0,0-1.215.076l-.942,1.215-.43-.43a.814.814,0,1,0-1.152,1.151l.57.57-2.012,2.594-.861-.861a.811.811,0,0,0-1.151,0,.821.821,0,0,0,0,1.151l1.006,1-1.041,1.338-7.444,7.444Zm10.357-3.454c-.343.349-9.973,9.973-12,12a4.509,4.509,0,0,0-2.3-2.3l12-12,2.3,2.3Zm-14.085,15.812a2.846,2.846,0,1,1,0-4.024,2.836,2.836,0,0,1,0,4.024Zm17.906-25.8,3.873,3.873c-.75.587-5.333,4.152-6.473,5.036l-2.437-2.437c1.564-2.012,3.425-4.408,5.036-6.473Z" transform="translate(-356.591 -292.73)" fill="#fff" fill-rule="evenodd"/>
          <circle id="Ellipse_11" data-name="Ellipse 11" cx="0.814" cy="0.814" r="0.814" transform="translate(22.796 28.647)" fill="#fff"/>
        </g>
      </g>
      <g id="_2197177274096" transform="translate(113.249 111.423)">
        <rect id="Rectangle_2443" data-name="Rectangle 2443" width="70.012" height="70.012" rx="8.81" fill="#f2334e"/>
        <rect id="Rectangle_2444" data-name="Rectangle 2444" width="30.153" height="4.216" rx="2.108" transform="translate(0.006 77.269)" fill="#ccc"/>
        <rect id="Rectangle_2445" data-name="Rectangle 2445" width="58.753" height="4.216" rx="2.108" transform="translate(0 84.207)" fill="#e9e9e9"/>
        <g id="Page-1" transform="translate(17.679 17.411)">
          <g id="_023---Bag-and-Shoe-Shopping">
            <path id="Shape" d="M557.882,305.255a1.16,1.16,0,0,0-.512.965c.006,4.67.541,15.533,5.28,15.533h11.927a.584.584,0,1,0,0-1.169H562.65c-3.012,0-4.094-7.74-4.112-14.358a33.077,33.077,0,0,0,8.8,1.9v4.838a2.344,2.344,0,0,0,2.344,2.344h2.349a2.344,2.344,0,0,0,2.344-2.344v-4.838a32.124,32.124,0,0,0,8.8-1.907c-.006.89-.023,2.251-.128,3.786a.6.6,0,0,0,.262.529.585.585,0,0,0,.913-.448c.1-1.57.122-2.954.128-3.861a1.179,1.179,0,0,0-.512-.971,1.167,1.167,0,0,0-1.087-.116,25.773,25.773,0,0,1-4.112,1.186c-1.1-4.745-4.234-8.019-7.781-8.019s-6.682,3.274-7.781,8.019a25.95,25.95,0,0,1-4.112-1.186,1.152,1.152,0,0,0-1.087.122Zm12.98-5.78c1.285,0,2.85,2.791,3.356,7.484-1.041.087-2.158.14-3.356.14s-2.315-.052-3.356-.14C568.012,302.266,569.576,299.475,570.862,299.475Zm2.344,13.486a1.174,1.174,0,0,1-1.169,1.175h-2.349a1.174,1.174,0,0,1-1.169-1.175V308.2c.744.041,1.529.064,2.344.064s1.6-.023,2.344-.064Zm4.286-6.42c-.651.116-1.355.215-2.105.3a17.366,17.366,0,0,0-1.855-6.56A9.9,9.9,0,0,1,577.491,306.54Zm-9.3-6.257a17.37,17.37,0,0,0-1.855,6.56c-.75-.087-1.454-.186-2.111-.3A9.934,9.934,0,0,1,568.192,300.283Z" transform="translate(-557.37 -298.3)" fill="#fff" stroke="#fff" stroke-miterlimit="2.613" stroke-width="0.53" fill-rule="evenodd"/>
            <path id="Shape_0" d="M567,331.14h-1.553a4.768,4.768,0,0,1-.739-1.588.588.588,0,1,0-1.117.366c.657,2.018,1.245,2.268,1.436,2.349a.521.521,0,0,0,.233.047H567a.584.584,0,1,0,0-1.169Z" transform="translate(-559.958 -311.199)" fill="#fff" stroke="#fff" stroke-miterlimit="2.613" stroke-width="0.53" fill-rule="evenodd"/>
            <path id="Shape_1" d="M578.55,321.072a.586.586,0,0,0,.587.587h1.175a.584.584,0,1,0,0-1.169h-1.175a.585.585,0,0,0-.587.582Z" transform="translate(-566.233 -307.586)" fill="#fff" stroke="#fff" stroke-miterlimit="2.613" stroke-width="0.53" fill-rule="evenodd"/>
            <path id="Shape_2" d="M589.988,316.537c-5.246,4.5-8.915,9.741-11.6,13.573-.413.6-.814,1.163-1.186,1.692-2.553,3.565-6.071,1.14-6.217,1.035-.3-.215-.814-.343-2.361.337a9.461,9.461,0,0,0-2.85,1.966c-.82.814-2.152,2.384-1.884,3.763a2.018,2.018,0,0,0,1.332,1.471,9.566,9.566,0,0,0,3.658.564H577.1c2.89,0,3.739-1.5,5.292-4.216.564-.994,1.274-2.233,2.233-3.67a16.781,16.781,0,0,1,2.966-3.321,11.8,11.8,0,0,1,1.233,5.24v4.792a1.179,1.179,0,0,0,1.175,1.175h1.756a1.175,1.175,0,0,0,1.175-1.175V333.21a11.8,11.8,0,0,1,.413-3.094c.523-1.931,1.332-4.867,1.343-4.955.419-4.641-1.221-7.287-2.239-8.45a1.751,1.751,0,0,0-2.454-.174Zm2.216,13.271a13.171,13.171,0,0,0-.454,3.4v6.554h-1.756v-4.792a12.974,12.974,0,0,0-1.483-6,25.144,25.144,0,0,1,4.7-2.855Zm1.337-5.112c-1.431.582-6.752,2.989-9.9,7.711-.983,1.471-1.7,2.727-2.274,3.739-1.506,2.629-2.065,3.617-4.274,3.617h-8.211a8.305,8.305,0,0,1-3.2-.471c-.564-.233-.617-.518-.634-.611-.122-.593.494-1.652,1.553-2.71a8.336,8.336,0,0,1,2.489-1.721,4.021,4.021,0,0,1,1.279-.413,6.807,6.807,0,0,0,2.6,1.006,5.121,5.121,0,0,0,5.187-2.361c.378-.529.773-1.1,1.2-1.7,2.64-3.78,6.263-8.956,11.392-13.358a.572.572,0,0,1,.808.058c.872.989,2.256,3.228,1.983,7.211Z" transform="translate(-560.086 -305.755)" fill="#fff" stroke="#fff" stroke-miterlimit="2.613" stroke-width="0.53" fill-rule="evenodd"/>
            <path id="Shape_3" d="M571.574,349.113a7.25,7.25,0,0,0-2.134,1.483,8.752,8.752,0,0,0-.657.739.584.584,0,0,0-.076.582.586.586,0,0,0,1.006.14,5.683,5.683,0,0,1,.558-.628,5.936,5.936,0,0,1,1.779-1.239.588.588,0,0,0-.471-1.076h-.006Z" transform="translate(-562.095 -319.547)" fill="#fff" stroke="#fff" stroke-miterlimit="2.613" stroke-width="0.53" fill-rule="evenodd"/>
          </g>
        </g>
      </g>
      <g id="Group_15235" data-name="Group 15235" transform="translate(226.678 111.423)">
        <rect id="Rectangle_2476" data-name="Rectangle 2476" width="70.012" height="70.012" rx="8.81" fill="#f2334e"/>
        <rect id="Rectangle_2477" data-name="Rectangle 2477" width="30.153" height="4.216" rx="2.108" transform="translate(0 77.269)" fill="#ccc"/>
        <rect id="Rectangle_2478" data-name="Rectangle 2478" width="58.753" height="4.216" rx="2.108" transform="translate(0 84.207)" fill="#e9e9e9"/>
        <g id="_2198602737520" transform="translate(15.195 17.286)">
          <g id="XMLID_2367_">
            <g id="XMLID_183_">
              <g id="XMLID_196_">
                <path id="XMLID_197_" d="M793.066,333.928l-.6-.343a.773.773,0,0,0-.773,1.337l.6.343a.779.779,0,0,0,.384.1.772.772,0,0,0,.39-1.442h0Z" transform="translate(-766.211 -312.896)" fill="#fff" fill-rule="evenodd"/>
                <path id="XMLID_260_" d="M798.236,324.968l-.6-.343a.773.773,0,0,0-.773,1.337l.6.349a.771.771,0,0,0,.384.1.787.787,0,0,0,.675-.384A.778.778,0,0,0,798.236,324.968Z" transform="translate(-768.374 -309.147)" fill="#fff" fill-rule="evenodd"/>
                <path id="XMLID_273_" d="M787,328.578h-7.3a15.952,15.952,0,0,0,.1-27.675.772.772,0,0,0-.587-.081.793.793,0,0,0-.471.361L763.578,327.45a.778.778,0,0,0,.285,1.058c.041.023.081.047.116.07H759.8v-4.652a9.345,9.345,0,0,0,5.9-13.5,7.048,7.048,0,0,1-.454-5.589l.332-.983a.77.77,0,0,0-.733-1.018h-3.414l2.076-3.588a.775.775,0,1,0-1.343-.773l-2.518,4.362h-9.5a.77.77,0,0,0-.739,1.018l.32.942a7.135,7.135,0,0,1-.448,5.647,9.3,9.3,0,0,0,1.6,11,9.248,9.248,0,0,0,4.286,2.472v5.449l-4.013,1.675a1.3,1.3,0,0,0,.5,2.489h31.95a4.184,4.184,0,0,0,4.181-4.175.773.773,0,0,0-.773-.773Zm-21.686-1.041,1.088-1.884a12.222,12.222,0,0,0,13.689-1.937.774.774,0,1,0-1.047-1.14,10.62,10.62,0,0,1-11.869,1.733l1.931-3.344a.534.534,0,0,0,.076.047l.6.349a.781.781,0,0,0,1.053-.285.776.776,0,0,0-.279-1.058l-.6-.343a.353.353,0,0,0-.081-.041l2.239-3.879a.861.861,0,0,1,.076.052l.6.343a.775.775,0,0,0,.773-1.343l-.6-.343-.076-.041,2.239-3.873c.023.017.047.029.07.047l.6.343a.778.778,0,0,0,.384.1.787.787,0,0,0,.675-.384.776.776,0,0,0-.285-1.058l-.6-.343a.473.473,0,0,0-.076-.041l1.931-3.35a10.632,10.632,0,0,1,4.431,11.148.773.773,0,0,0,.587.925.781.781,0,0,0,.925-.593,12.186,12.186,0,0,0-.715-7.49,12.064,12.064,0,0,0-4.455-5.327l1.088-1.884a14.391,14.391,0,0,1-4.018,25.931h-7.682a14.353,14.353,0,0,1-2.669-1.041Zm-1.995-20.371h-1.9a2.912,2.912,0,0,0,0-2.786h2.338A8.641,8.641,0,0,0,763.322,307.166Zm-5.879-1.4a1.393,1.393,0,1,1,1.4,1.4A1.395,1.395,0,0,1,757.443,305.77Zm-1.192-1.39a2.912,2.912,0,0,0,0,2.786h-4.606a8.782,8.782,0,0,0-.43-2.786ZM749.7,314.923a7.757,7.757,0,0,1,.93-3.745,8.306,8.306,0,0,0,.867-2.466h4.745l-1.814,3.146a.775.775,0,1,0,1.343.773l2.262-3.92h5.432a8.2,8.2,0,0,0,.866,2.448,7.8,7.8,0,0,1-5.455,11.381h-.017a7.782,7.782,0,0,1-9.159-7.618h0Zm6.525,15.667a.775.775,0,0,0,.477-.715v-5.7c.215.017.43.029.651.035h.134c.256,0,.512-.012.762-.029v5.693a.768.768,0,0,0,.471.71l3.332,1.4H752.9Zm27.367,1.39H764.584a1.291,1.291,0,0,0-.773-.942l-2.181-.913h24.483A2.637,2.637,0,0,1,783.595,331.98Z" transform="translate(-748.15 -298.085)" fill="#fff" fill-rule="evenodd"/>
                <path id="XMLID_280_" d="M805.363,336.727a.79.79,0,0,0,.547-.227.775.775,0,0,0,.227-.547.774.774,0,0,0-.774-.773.775.775,0,0,0-.547.227.765.765,0,0,0-.227.547.775.775,0,0,0,.227.547A.8.8,0,0,0,805.363,336.727Z" transform="translate(-771.768 -313.608)" fill="#fff" fill-rule="evenodd"/>
              </g>
            </g>
          </g>
        </g>
      </g>
      <g id="Group_15234" data-name="Group 15234" transform="translate(226.678)">
        <rect id="Rectangle_2473" data-name="Rectangle 2473" width="70.012" height="70.012" rx="8.81" fill="#f2334e"/>
        <rect id="Rectangle_2474" data-name="Rectangle 2474" width="30.153" height="4.216" rx="2.108" transform="translate(0 77.269)" fill="#ccc"/>
        <rect id="Rectangle_2475" data-name="Rectangle 2475" width="58.753" height="4.216" rx="2.108" transform="translate(0 84.207)" fill="#e9e9e9"/>
        <g id="_2197181668096" transform="translate(9.718 20.883)">
          <g id="Group_15229" data-name="Group 15229">
            <path id="Path_5496" data-name="Path 5496" d="M752.886,148.74a2.149,2.149,0,1,0,2.146,2.152A2.149,2.149,0,0,0,752.886,148.74Zm0,2.809a.66.66,0,1,1,.663-.657A.661.661,0,0,1,752.886,151.549Z" transform="translate(-743.756 -127.764)" fill="#fff" fill-rule="evenodd"/>
            <path id="Path_5497" data-name="Path 5497" d="M808.906,148.74a2.149,2.149,0,1,0,2.146,2.152A2.149,2.149,0,0,0,808.906,148.74Zm0,2.809a.66.66,0,1,1,.663-.657A.661.661,0,0,1,808.906,151.549Z" transform="translate(-767.198 -127.764)" fill="#fff" fill-rule="evenodd"/>
            <path id="Path_5498" data-name="Path 5498" d="M787.411,129.459v-6.734a4.741,4.741,0,0,0-.657-2.408l-.861-1.465a.742.742,0,1,0-1.279.75l.861,1.471a3.289,3.289,0,0,1,.448,1.652v.11h-1.495a1.559,1.559,0,0,0-1.559,1.559v4.245a1.559,1.559,0,0,0,1.559,1.559h1.5a.747.747,0,0,0,.739.651h.035a1.124,1.124,0,0,1,1.122,1.128v1.2H784.84a5.119,5.119,0,0,0-8.8,0h-7.467l.925-2.07a1.733,1.733,0,0,0,.157-.721v-6.065h4.966a.744.744,0,0,0,0-1.489h-3.478v-5.7h8.153l-.006,5.7h-1.5a.744.744,0,1,0,0,1.489h1.5a1.494,1.494,0,0,0,1.495-1.495v-5.955a1.229,1.229,0,0,0-1.233-1.227h-17.3a1.239,1.239,0,0,0-.814.3l-8.124,7.072a.742.742,0,0,0,.489,1.3h14.364v6.065a.253.253,0,0,1-.023.111l-1.2,2.681h-8.473a.741.741,0,1,0,0,1.483h16.981a5.206,5.206,0,0,0-.128,1.134q0,.183.017.366H752.966q.017-.183.018-.366a5.217,5.217,0,0,0-.128-1.134h2.437a.741.741,0,1,0,0-1.483h-3.03a5.169,5.169,0,0,0-2.256-2.035v-7.223l10.671-9.287a1.948,1.948,0,0,1,1.279-.477h17.591a3.274,3.274,0,0,1,2.815,1.611l.645,1.1a.743.743,0,0,0,1.279-.756l-.646-1.1a4.768,4.768,0,0,0-4.094-2.344H761.957a3.467,3.467,0,0,0-2.256.843l-10.712,9.328h-5.036a5.229,5.229,0,0,0-5.222,5.222v7.99a1.607,1.607,0,0,0,1.605,1.6h2.751a5.125,5.125,0,0,0,9.549,0H775.67a5.121,5.121,0,0,0,9.543,0h2.495a1.608,1.608,0,0,0,1.605-1.605v-4.071a2.625,2.625,0,0,0-1.9-2.518h0Zm-2.983-5.135h1.495v1.448h-1.564v-1.378a.067.067,0,0,1,.07-.07Zm-.07,4.315v-1.378h1.564v1.454h-1.495a.072.072,0,0,1-.07-.076Zm-16.2-11.509h1.489v5.7h-1.489Zm-5.821,0h4.332v5.7H755.787l6.554-5.7Zm-13.817,7.194v6.4a5.079,5.079,0,0,0-5.065,2.46h-3.239v-3.763h2.024a2.242,2.242,0,0,0,0-4.484h-.326a3.709,3.709,0,0,1,2.035-.611h4.571Zm-6.281,2.1a.756.756,0,1,1,0,1.512h-2.024a3.868,3.868,0,0,1,.378-1.512h1.646Zm-1.907,9.741a.112.112,0,0,1-.116-.11v-1.39h2.646a5.217,5.217,0,0,0-.128,1.134q0,.183.017.366h-2.419Zm7.525,3.268a3.635,3.635,0,1,1,3.635-3.635A3.64,3.64,0,0,1,747.86,139.432Zm32.578,0a3.635,3.635,0,1,1,3.635-3.635A3.64,3.64,0,0,1,780.438,139.432Zm7.269-3.268h-2.163q.017-.183.017-.366a5.213,5.213,0,0,0-.128-1.134h2.39v1.384a.117.117,0,0,1-.116.116Z" transform="translate(-738.73 -112.67)" fill="#fff" fill-rule="evenodd"/>
            <path id="Path_5499" data-name="Path 5499" d="M784.479,136.2a.744.744,0,0,0,0-1.489h-1.425a.744.744,0,1,0,0,1.489Z" transform="translate(-756.967 -121.893)" fill="#fff" fill-rule="evenodd"/>
          </g>
        </g>
      </g>
    </g>
    <g id="_2197181669376" transform="translate(873.208 469.516)">
      <g id="Group_15230" data-name="Group 15230">
        <path id="Path_5500" data-name="Path 5500" d="M44.671,570.56a1.157,1.157,0,1,0,1.157,1.157A1.159,1.159,0,0,0,44.671,570.56Zm0,1.512a.355.355,0,1,1,.361-.355A.356.356,0,0,1,44.671,572.072Z" transform="translate(-39.763 -559.272)" fill="#fff" fill-rule="evenodd"/>
        <path id="Path_5501" data-name="Path 5501" d="M74.821,570.56a1.157,1.157,0,1,0,1.157,1.157A1.159,1.159,0,0,0,74.821,570.56Zm0,1.512a.355.355,0,1,1,.361-.355A.356.356,0,0,1,74.821,572.072Z" transform="translate(-52.38 -559.272)" fill="#fff" fill-rule="evenodd"/>
        <path id="Path_5502" data-name="Path 5502" d="M63.258,560.187v-3.629a2.521,2.521,0,0,0-.355-1.291l-.465-.791a.4.4,0,1,0-.686.407l.459.791a1.7,1.7,0,0,1,.244.884v.064h-.8a.839.839,0,0,0-.843.837v2.285a.843.843,0,0,0,.843.837h.8a.407.407,0,0,0,.4.349h.017a.608.608,0,0,1,.6.6v.651H61.874a2.756,2.756,0,0,0-4.74,0H53.116l.5-1.116a.968.968,0,0,0,.081-.384v-3.268h2.675a.4.4,0,1,0,0-.8H54.5v-3.071h4.391l-.006,3.071h-.808a.4.4,0,1,0,0,.8h.808a.8.8,0,0,0,.8-.8v-3.2a.663.663,0,0,0-.663-.663h-9.31a.631.631,0,0,0-.436.169l-4.373,3.8a.394.394,0,0,0-.11.442.39.39,0,0,0,.372.256H52.9v3.268a.1.1,0,0,1-.012.058l-.646,1.442H47.679a.4.4,0,0,0,0,.8h9.136a2.918,2.918,0,0,0-.07.6c0,.07.006.134.012.2H44.719c.006-.064.006-.128.006-.2a2.92,2.92,0,0,0-.064-.6h1.308a.4.4,0,0,0,0-.8H44.341a2.766,2.766,0,0,0-1.215-1.093V557.2l5.746-5a1.036,1.036,0,0,1,.686-.256h9.467a1.755,1.755,0,0,1,1.512.866l.349.587a.4.4,0,0,0,.692-.4l-.349-.593a2.561,2.561,0,0,0-2.2-1.262H49.557a1.862,1.862,0,0,0-1.215.454l-5.763,5.019h-2.71a2.811,2.811,0,0,0-2.809,2.809v4.3a.862.862,0,0,0,.861.861H39.4a2.755,2.755,0,0,0,5.135,0h12.4a2.755,2.755,0,0,0,5.135,0h1.343a.869.869,0,0,0,.866-.866v-2.193a1.406,1.406,0,0,0-1.024-1.349h0Zm-1.605-2.768h.8v.785h-.843v-.744a.04.04,0,0,1,.041-.041h0Zm-.041,2.326V559h.843v.785h-.8a.044.044,0,0,1-.041-.041h0ZM52.9,553.552h.8v3.071h-.8Zm-3.129,0H52.1v3.071H46.237Zm-7.438,3.873v3.437c-.116-.012-.238-.023-.361-.023a2.753,2.753,0,0,0-2.367,1.349H37.857v-2.024h1.087a1.207,1.207,0,1,0,0-2.413H38.77a1.984,1.984,0,0,1,1.1-.326Zm-3.385,1.122a.407.407,0,1,1,0,.814H37.863a2.021,2.021,0,0,1,.2-.814Zm-1.024,5.245a.06.06,0,0,1-.064-.058v-.744h1.425a2.918,2.918,0,0,0-.07.6c0,.07.006.134.012.2Zm4.048,1.762a1.957,1.957,0,1,1,1.96-1.96A1.959,1.959,0,0,1,41.968,565.555Zm17.533,0a1.957,1.957,0,1,1,1.96-1.96A1.959,1.959,0,0,1,59.5,565.555Zm3.914-1.762H62.252c.006-.064.006-.128.006-.2a2.92,2.92,0,0,0-.064-.6h1.285v.739a.064.064,0,0,1-.064.064Z" transform="translate(-37.06 -551.15)" fill="#fff" fill-rule="evenodd"/>
        <path id="Path_5503" data-name="Path 5503" d="M61.679,563.813a.4.4,0,0,0,0-.8h-.768a.4.4,0,0,0,0,.8Z" transform="translate(-46.873 -556.113)" fill="#fff" fill-rule="evenodd"/>
      </g>
    </g>
  </g>
</svg>
